<?xml version="1.0" encoding="UTF-8" standalone="no"?>
<svg width="16px" height="16px" viewBox="0 0 16 16" version="1.1" xmlns="http://www.w3.org/2000/svg" xmlns:xlink="http://www.w3.org/1999/xlink" xmlns:sketch="http://www.bohemiancoding.com/sketch/ns">
    <!-- Generator: Sketch 3.2.2 (9983) - http://www.bohemiancoding.com/sketch -->
    <title>i-gear</title>
    <desc>Created with Sketch.</desc>
    <defs></defs>
    <g id="Icons" stroke="none" stroke-width="1" fill="none" fill-rule="evenodd" sketch:type="MSPage">
        <g id="Artboard-1" sketch:type="MSArtboardGroup" transform="translate(-56.000000, -420.000000)" fill="#000000">
            <path d="M70,428 C70,427.617 69.96,427.244 69.892,426.88 L72,425.01 L69.344,422.018 L67.818,423.372 C67.283,422.93 66.667,422.586 66,422.35 L66,420 L62,420 L62,422.35 C61.333,422.586 60.717,422.93 60.182,423.372 L58.656,422.018 L56,425.01 L58.108,426.88 C58.04,427.244 58,427.617 58,428 C58,428.384 58.04,428.758 58.108,429.121 L56,430.992 L58.656,433.983 L60.182,432.629 C60.717,433.07 61.333,433.416 62,433.652 L62,436 L66,436 L66,433.652 C66.667,433.416 67.283,433.07 67.818,432.629 L69.344,433.983 L72,430.992 L69.892,429.121 C69.96,428.758 70,428.384 70,428 L70,428 Z M64,431 C62.346,431 61,429.654 61,428 C61,426.346 62.346,425 64,425 C65.654,425 67,426.346 67,428 C67,429.654 65.654,431 64,431 L64,431 Z" id="i-gear" sketch:type="MSShapeGroup"></path>
        </g>
    </g>
</svg>