<?xml version="1.0" encoding="UTF-8" standalone="no"?>
<svg width="17px" height="14px" viewBox="0 0 17 14" version="1.1" xmlns="http://www.w3.org/2000/svg" xmlns:xlink="http://www.w3.org/1999/xlink" xmlns:sketch="http://www.bohemiancoding.com/sketch/ns">
    <!-- Generator: Sketch 3.2.2 (9983) - http://www.bohemiancoding.com/sketch -->
    <title>i-toc</title>
    <desc>Created with Sketch.</desc>
    <defs></defs>
    <g id="Icons" stroke="none" stroke-width="1" fill="none" fill-rule="evenodd" sketch:type="MSPage">
        <g id="Artboard-1" sketch:type="MSArtboardGroup" transform="translate(-143.000000, -54.000000)" fill="#000000">
            <path d="M147.519438,54.0148033 L159.772479,54.0148033 L159.772479,56.668377 L147.519438,56.668377 L147.519438,54.0148033 Z M147.519438,59.6579508 L159.772479,59.6579508 L159.772479,62.3117541 L147.519438,62.3117541 L147.519438,59.6579508 Z M147.519438,65.331623 L159.772479,65.331623 L159.772479,67.9851967 L147.519438,67.9851967 L147.519438,65.331623 Z M144.343932,54.0148033 C143.601521,54.0148033 143,54.6078525 143,55.3395246 C143,56.0707377 143.601521,56.6640164 144.343932,56.6640164 C145.08611,56.6640164 145.687863,56.0707377 145.687863,55.3395246 C145.687863,54.6078525 145.08611,54.0148033 144.343932,54.0148033 Z M144.343932,59.6510656 C143.601521,59.6510656 143,60.2441148 143,60.9757869 C143,61.707 143.601521,62.3000492 144.343932,62.3000492 C145.08611,62.3000492 145.687863,61.707 145.687863,60.9757869 C145.687863,60.2441148 145.08611,59.6510656 144.343932,59.6510656 Z M144.343932,65.3121148 C143.601521,65.3121148 143,65.9051639 143,66.6368361 C143,67.3680492 143.601521,67.9610984 144.343932,67.9610984 C145.08611,67.9610984 145.687863,67.3680492 145.687863,66.6368361 C145.687863,65.9051639 145.08611,65.3121148 144.343932,65.3121148 Z" id="i-toc" sketch:type="MSShapeGroup"></path>
        </g>
    </g>
</svg>