{
  "questionGroup1":
  [
    {
      "index": 1,
      "type": "chooseOne",
      "text": "Given a controller method that returns \"barney/rubble\", and an InternalViewResolver with prefix=\"/WEB-INF/jsp\" and suffix=\"jsp\", what happens when Spring MVC runs the method?",
      "description": "Choose one",
      "options":
      [
        { "value": "throws an exception that results in an HTTP 500"},
        { "value": "throws an exception that results in an HTTP 404"},
        { "value": "uses /WEB-INF/jsp/barney/rubble.jsp", "isCorrect": true},
        { "value": "uses /WEB-INF/barney/rubble.jsp"},
        { "value": "None of the above"}
      ],
      "explanation": "The InternalViewResolver allows you to group your views in subdirectories below the one given as the prefix value.",
      "hint": "The InternalViewResolver concatenates the prefix + view name + suffix to form the path to the file."

    }
  ],
  "questionGroup2":
  [
    {
       "index": 1,
       "type": "chooseOne",
       "text": "The Spring MVC form taglib's <form> tag binds an object in the model, and allows standard HTML <input> tags to access the model data.",
       "description": "Choose one",
       "options":
       [
         { "value": "True"},
         { "value": "False", "isCorrect": false}
       ],
       "explanation": "You must use the Spring MVC form taglib's <input> tags to access the model data.",
       "hint": "Spring MVC provides a taglib to create HTML tags."
    },
   {
      "index": 2,
      "type": "matchItemsToDescription",
      "text": "Match the word to the placeholder to complete the sentence.",
      "hint": "There are more words than placeholders.",
      "code": "'Given <sf:form method=\"POST\" commandName=\"cartoonCharacter\"/>, you would expect to see the _A_ add an object named _B_ to the _C_ instance with _D_.'",
     "options":
     [
       { "value": "@Controller"},
       { "value": "@Component"},
       { "value": "Model"},
       { "value": "Request"},
       { "value": "cartoonCharacter"},
       { "value": "addAttribute"},
       { "value": "setProperty"}
     ],
     "descriptions":
     [
        { "value": "_A_", "matchingIndex": 0},
        { "value": "_B_", "matchingIndex": 4},
        { "value": "_C_", "matchingIndex": 2},
        { "value": "_D_", "matchingIndex": 5}
     ]

    }
  ],
  "questionGroup3":
  [
    {
      "index": 1,
      "type": "matchItemsToDescription",
      "description": "Drag the description to the item",
      "text": "Match the items from the Spring form taglib to its description.",
      "options":
      [
        { "value": "Identifies a property on the command object."},
        { "value": "Renders an HTML <form> tag and exposes binding path to inner tags for data-binding."},
        { "value": "Renders a message in a <span> if there is a validation error associated with the item identified by its path attribute."},
        { "value": "Identifies the CSS class assigned to the field under normal conditions."},
        { "value": "Identifies the CSS class assigned to the field if the field failed validation."},
        { "value": "Wraps data to render in an HTML <label> tag."},
        { "value": "Name of the command object bound to the form."}
      ],
      "descriptions":
      [
        { "value": "<form>", "matchingIndex": 1},
        { "value": "commandName", "matchingIndex": 6},
        { "value": "cssClass", "matchingIndex": 3},
        { "value": "cssErrorClass", "matchingIndex": 4},
        { "value": "path", "matchingIndex": 0},
        { "value": "<label>", "matchingIndex": 5},
        { "value": "<errors>", "matchingIndex": 2}
      ],
      "hint": "A Command Object is a common pattern associated with the Model-View-Controller (MVC) pattern."
    },
    {
      "index": 2,
      "type": "chooseOne",
      "text": "Select the invalid <errors> tag below. Assume that the <form> command object is a Spitter, and all CSS classes used exist.",
      "description": "Choose one",
      "options":
      [
        { "value": "<errors path=\"*\" cssClass=\"errors\" />"},
        { "value": "<errors path=\"*\" cssErrorClass=\"errors\" />", "isCorrect": true},
        { "value": "<errors path=\"*\" element=\"div\" cssClass=\"oops\"/>"},
        { "value": "<errors path=\"firstName\" cssClass=\"normal\" cssErrorClass=\"someError\"/>"}
      ],
      "explanation": "The <errors> tag has no need for a cssErrorClass.",
      "hint": "The path attribute for the <errors> tag can be applied to property or a wildcard."
    }
  ]
}
