{
  "questionGroup1":
  [
    {
      "type": "chooseOne",
      "description": "Choose one",
      "text": "Given this fragment in a web.xml file, what will happen when you deploy the application?",
      "code": "<filter>\n<filter-name>securityFilterChain</filter-name>\n<filter-class>\norg.springframework.web.filter.DelegatingFilterProxy\n</filter-class>\n</filter>\n<filter-mapping>\n<filter-name>securityFilterChain</filter-name>\n<url-pattern>/*</url-pattern>\n</filter-mapping>",
    "options":
    [
      { "value": "The application deploys and all requests will pass through the security filter chain." },
      { "value": "The application deploys successfully, but Spring Securty does not function." },
      { "value": "The application fails to deploy, and throws an exception about not finding a bean named springSecurityFilterChain.", "isCorrect": true },
      { "value": "Because the class name should be SecurityFilterProxy, the deployment fails." },
      { "value": "Deployment fails because the DelegatingFilterProxy should be configured in a file loaded in the contextConfigLocation." }
    ],
    "explanation": "Spring Security will not accept another name for the filter, and will throw an exception about the 'unknown filter name springSecurityFilterChain'.",
    "hint": "Even the AbstractSecurityWebApplicationInitializer uses springSecurityFilterChain for the filter name."
    }
  ],
  "questionGroup2":
  [
    {
      "type": "giveAnswer",
      "description": "Choose one",
      "text": "@EnableWebMvcSecurity is a better choice than @EnableWebSecurity when using Spring MVC because request handling methods can have parameters annotated with ________________________ allowing access to the current authenticated user's principal.",
      "correctAnswer": "@AuthenticationPrincipal",
      "hint": "You would get the most benefit from this if you implement UserDetails in the class representing the user."
    },
    {
      "type": "matchItemsToDescription",
      "description": "Drag the description to the item",
      "text": "Match the item to its description.",
      "options":
      [
        { "value": "Applied to an @Configuration class to enable web security." },
        { "value": "Must have at least one in order to configure Spring Security when using @EnableWebSecurity." },
        { "value": "Includes an argument resolver that fills in @AuthenticationPrincipal marked parameters, and adds a token to avoid CSRF." },
        { "value": "Should be thrown if the username cannot be found by loadUserByUsername() implementations." },
        { "value": "Loads user data." },
        { "value": "Interface defining methods for getting user name, password, granted authorities, and some status data." },
        { "value": "Implements UserDetails." }
      ],
      "descriptions":
      [
        { "value": "UserDetails", "matchingIndex": 5 },
        { "value": "UserNameNotFoundException", "matchingIndex": 3 },
        { "value": "WebSecurityConfigurer", "matchingIndex": 1 },
        { "value": "@EnableWebMVCSecurity", "matchingIndex": 2 },
        { "value": "UserDetailsService", "matchingIndex": 4 },
        { "value": "@EnableWebSecurity", "matchingIndex": 0 },
        { "value": "User", "matchingIndex": 6 }
      ],
      "hint": "See the Spring Security API and/or reference manual."
    }
  ],
  "questionGroup3":
  [
    {
      "type": "matchItemsToDescription",
      "description": "Drag the description to the item",
      "text": "Match the item to its description.",
      "options":
      [
        { "value": "Used by a WebSecurityConfiguration to create the springSecurityFilterChain used by the DelegatingFilterProxy." },
        { "value": "Allows configuration security for HTTP requests based on URL patterns and user roles." },
        { "value": "Allows building in memory authentication, LDAP authentication, and JDBC base authentication." },
        { "value": "Can be extended to configure the security filter chain, request access, user login, and authentication." }
      ],
      "descriptions":
      [
        { "value": "AuthenticationMangementBuilder", "matchingIndex": 2 },
        { "value": "WebSecurityConfigurerAdapter", "matchingIndex": 3 },
        { "value": "WebSecurity", "matchingIndex": 0 },
        { "value": "HttpSecurity", "matchingIndex": 1 }
      ],
      "hint": "See table 9.2"
    }
  ],
  "questionGroup4":
  [
    {
      "type": "arrangeCode",
      "description": "Fill in the blanks",
      "text": "Configure the web security to comply with the comments.",
      "code": "{.@EnableWebSecurity.}\nclass OurSecurityConfig extends {.WebSecurityConfigurerAdpater.} {\n // Configure the springSecurityFilterChain\n protected configure( {.WebSecurity.} obj) throws Exception {\n  obj.   // enable debugging for Spring Security\n   {.debug.} (true)\n   .and()\n   // All requests to /images/ should skip the security filter chain\n   . {.ignoring.} (). {.antMatchers.} (\"/images/**\");\n }\n\n  // Configure request security interceptors\n protected configure( {.HttpSecurity.} obj) throws Exception {\n   obj. {.authorizeRequests.} ().\n   // allow anyone access to resources under /public/\n   .antMatchers(\"/public/**\"). {.permitAll.} ()\n   // All remaing requests require a User with \"ROLE_DEV\" using form based authentication, and CSRF support\n   .and().antMatchers(\"/**\"). {.hasRole.} (\"DEV\"). {.and.} () .csrf().and(). {.formLogin.} ();\n  }\n\n  // Configure user-details services\n  protected configure( {.AuthenticationMangerBuilder.} obj) throws Exception {\n   // Add in memory authentication\n   obj. {.inMemoryAuthentication.} ()\n   // Allow user with Username user, and Password name password to authenticate using form based authentication\n   . {.withUser.} (\"user\"). {.password.} (\"password\"). {.roles.} (\"DEV\");\n  }\n}"
    }
  ]
}
